{
    "content": [
        {
            "holderAddress": "0x350cdf56db6b25b7854eadfe731da63bcf334610e91326b146573703dbd1137b",
            "holderName": null,
            "holderImg": null,
            "coinType": "0x57184d3106ea793e09506453ef61559fa74f34ea8d1b9db4d3b47c980a053f94::capys::CAPYS",
            "coinDenom": "CAPYS",
            "holderSecurityMessage": null,
            "amount": 205992758.28487,
            "usdAmount": null,
            "percentage": 2.0599275828487,
            "objectsCount": 2
        },
        {
            "holderAddress": "0xc8e25e7951359e618c1350fc5eedad5f79d4b778f9599b621d135644bffd8caa",
            "holderName": null,
            "holderImg": null,
            "coinType": "0x57184d3106ea793e09506453ef61559fa74f34ea8d1b9db4d3b47c980a053f94::capys::CAPYS",
            "coinDenom": "CAPYS",
            "holderSecurityMessage": null,
            "amount": 191621710.188652,
            "usdAmount": null,
            "percentage": 1.91621710188652,
            "objectsCount": 3
        },
        {
            "holderAddress": "0x9c2f1728e0d03da5ea65a6b8a1d822178b4ea73bd5da98b20aa13524328d3235",
            "holderName": null,
            "holderImg": null,
            "coinType": "0x57184d3106ea793e09506453ef61559fa74f34ea8d1b9db4d3b47c980a053f94::capys::CAPYS",
            "coinDenom": "CAPYS",
            "holderSecurityMessage": null,
            "amount": 186713728.084463,
            "usdAmount": null,
            "percentage": 1.86713728084463,
            "objectsCount": 1
        },
        {
            "holderAddress": "0xe4047f314f42f00812e2767e1b0a6adcf61f0b449671c827fe71bacb9fb3f142",
            "holderName": null,
            "holderImg": null,
            "coinType": "0x57184d3106ea793e09506453ef61559fa74f34ea8d1b9db4d3b47c980a053f94::capys::CAPYS",
            "coinDenom": "CAPYS",
            "holderSecurityMessage": null,
            "amount": 179261790.215502,
            "usdAmount": null,
            "percentage": 1.79261790215502,
            "objectsCount": 8
        },
        {
            "holderAddress": "0x74d1bb94889c46fd7c305bb110e67e70964ef56e5047f3647a5f8d68f52b8b13",
            "holderName": null,
            "holderImg": null,
            "coinType": "0x57184d3106ea793e09506453ef61559fa74f34ea8d1b9db4d3b47c980a053f94::capys::CAPYS",
            "coinDenom": "CAPYS",
            "holderSecurityMessage": null,
            "amount": 178076496.921863,
            "usdAmount": null,
            "percentage": 1.78076496921863,
            "objectsCount": 1
        },
        {
            "holderAddress": "0x4632bbdb777c69139821941cbbced982b8476020d282690facbce4c83762da56",
            "holderName": null,
            "holderImg": null,
            "coinType": "0x57184d3106ea793e09506453ef61559fa74f34ea8d1b9db4d3b47c980a053f94::capys::CAPYS",
            "coinDenom": "CAPYS",
            "holderSecurityMessage": null,
            "amount": 175557200.127189,
            "usdAmount": null,
            "percentage": 1.75557200127189,
            "objectsCount": 1
        },
        {
            "holderAddress": "0xe88a66daca8eb7b18bbc699081f76313b64ba1e68956948f5396d4a92013e922",
            "holderName": null,
            "holderImg": null,
            "coinType": "0x57184d3106ea793e09506453ef61559fa74f34ea8d1b9db4d3b47c980a053f94::capys::CAPYS",
            "coinDenom": "CAPYS",
            "holderSecurityMessage": null,
            "amount": 175509813.946219,
            "usdAmount": null,
            "percentage": 1.75509813946219,
            "objectsCount": 1
        },
        {
            "holderAddress": "0x9f1d9d48e54c4420ebc20742d735a536f8955fd66f19de51ba27f10e9c17b809",
            "holderName": null,
            "holderImg": null,
            "coinType": "0x57184d3106ea793e09506453ef61559fa74f34ea8d1b9db4d3b47c980a053f94::capys::CAPYS",
            "coinDenom": "CAPYS",
            "holderSecurityMessage": null,
            "amount": 172388449.574141,
            "usdAmount": null,
            "percentage": 1.72388449574141,
            "objectsCount": 3
        },
        {
            "holderAddress": "0xaa56bc42ff835d1406ecc222dea3164085c12af65f007b962af9837bfdd25206",
            "holderName": null,
            "holderImg": null,
            "coinType": "0x57184d3106ea793e09506453ef61559fa74f34ea8d1b9db4d3b47c980a053f94::capys::CAPYS",
            "coinDenom": "CAPYS",
            "holderSecurityMessage": null,
            "amount": 165549747.406,
            "usdAmount": null,
            "percentage": 1.65549747406,
            "objectsCount": 1
        },
        {
            "holderAddress": "0xe096c830f673b671a34498cea92da87e7f76f931cfada053f2c2e15f9d3b656c",
            "holderName": null,
            "holderImg": null,
            "coinType": "0x57184d3106ea793e09506453ef61559fa74f34ea8d1b9db4d3b47c980a053f94::capys::CAPYS",
            "coinDenom": "CAPYS",
            "holderSecurityMessage": null,
            "amount": 165530499.521687,
            "usdAmount": null,
            "percentage": 1.65530499521687,
            "objectsCount": 1
        }
    ],
    "pageable": {
        "sort": {
            "sorted": true,
            "empty": false,
            "unsorted": false
        },
        "pageNumber": 0,
        "pageSize": 10,
        "offset": 0,
        "paged": true,
        "unpaged": false
    },
    "last": false,
    "totalElements": 2317,
    "totalPages": 232,
    "size": 10,
    "number": 0,
    "sort": {
        "sorted": true,
        "empty": false,
        "unsorted": false
    },
    "first": true,
    "numberOfElements": 10,
    "empty": false
}